{
    "key": "group_5b299b55a617a",
    "title": "Section -- Enquiry Form",
    "fields": [
        {
            "key": "field_5b299be363036",
            "label": "Enquiry Form",
            "name": "enquiry_form",
            "type": "relationship",
            "instructions": "",
            "required": 1,
            "conditional_logic": 0,
            "wrapper": {
                "width": "",
                "class": "",
                "id": ""
            },
            "post_type": [
                "wpcf7_contact_form"
            ],
            "taxonomy": [],
            "filters": [
                "search"
            ],
            "elements": "",
            "min": "",
            "max": 1,
            "return_format": "id"
        }
    ],
    "location": [
        [
            {
                "param": "post_type",
                "operator": "==",
                "value": "post"
            }
        ]
    ],
    "menu_order": 0,
    "position": "normal",
    "style": "default",
    "label_placement": "top",
    "instruction_placement": "label",
    "hide_on_screen": "",
    "active": 0,
    "description": "",
    "modified": 1529453714
}