<svg width="16" height="16" xmlns="http://www.w3.org/2000/svg">
  <path class="svg_inherit" d="M3.56 1.78c0 .98-.63 1.78-1.78 1.78A1.7 1.7 0 0 1 0 1.86C0 .9.71 0 1.78 0c1.06 0 1.78.8 1.78 1.78zM0 16h3.56V4.44H0V16zM12.09 4.62A3.9 3.9 0 0 0 8.7 6.4h-.09l-.18-1.51h-3.2c0 .98.1 2.13.1 3.47V16h3.55V9.69c0-.36 0-.62.09-.89.26-.62.7-1.42 1.69-1.42 1.24 0 1.77 1.06 1.77 2.49V16H16V9.42c0-3.29-1.69-4.8-3.91-4.8z" fill="#B2519E" fill-rule="nonzero"/>
</svg>
