<svg width="18" height="18" xmlns="http://www.w3.org/2000/svg">
    <path class="svg_inherit" d="M3.27 14.73a3.1 3.1 0 0 1 0-4.39L6.1 7.52 4.76 6.17 1.93 9A5 5 0 0 0 9 16.07l2.83-2.83-1.35-1.34-2.82 2.83a3.1 3.1 0 0 1-4.39 0zm3.6-2.2l5.67-5.65-1.42-1.42-5.66 5.66 1.42 1.42zM9 1.94L6.17 4.76 7.52 6.1l2.82-2.83a3.1 3.1 0 0 1 4.39 4.39l-2.83 2.82 1.34 1.35L16.07 9A5 5 0 0 0 9 1.93z" fill="#B2519E" fill-rule="nonzero"/>
</svg>
