<?xml version="1.0" encoding="UTF-8"?>
<svg width="24px" height="24px" viewBox="0 0 24 24" version="1.1" xmlns="http://www.w3.org/2000/svg" xmlns:xlink="http://www.w3.org/1999/xlink">
    <!-- Generator: Sketch 49 (51002) - http://www.bohemiancoding.com/sketch -->
    <title>icon / expand</title>
    <desc></desc>
    <defs></defs>
    <g id="icon-/-expand" class="svg_inherit" stroke="none" stroke-width="1" fill-rule="evenodd">
        <g id="ic_expand_more_black_24px" transform="translate(7.000000, 9.000000)" fill-rule="nonzero">
            <polygon id="Shape" points="8.825 0 5 3.70850202 1.175 0 0 1.1417004 5 6 10 1.1417004"></polygon>
        </g>
    </g>
</svg>
